{
    "val_size": 0.2,
    "invert_train_val": false,
    "prior_augmentation": true,
    "prior_augmentation_times": 1,
    "batch_size": 10,
    "val_batch_size": 100,
    "sampling_strategy": "oversample",
    "interpolation": "lanczos",
    "keep_aspect_ratio": false,
    "keep_resized_for_training": false,
    "generator_workers": 4,
    "generator_max_queue_size": 100,
    "data_augmented": true,
    "data_augmentation_params": {
        "_FrozenOrderedDict__dict": {
            "rotation_range": 15,
            "width_shift_range": 0.2,
            "height_shift_range": 0.2,
            "zoom_range": 0.2
        },
        "_FrozenOrderedDict__hash": null
    },
    "data_augmentation_width_resize_range": 0.2,
    "trainable_head_layers": 0,
    "train_head": false,
    "early_stopping_patience": 20,
    "epochs": 100,
    "number_of_trainings": 1,
    "retrain": false,
    "optimizer_extra_params": {
        "_FrozenOrderedDict__dict": {},
        "_FrozenOrderedDict__hash": null
    },
    "retrain_optimizer": "sgd",
    "retrain_optimizer_extra_params": {
        "_FrozenOrderedDict__dict": {},
        "_FrozenOrderedDict__hash": null
    },
    "retrain_learning_rate": 1e-05,
    "input_shape": [
        224,
        224
    ],
    "frozen_layers": 9,
    "dense_neurons": 512,
    "dropout": null,
    "optimizer": "adam",
    "learning_rate": 5e-06,
    "kernel_initializer": "glorot_uniform",
    "total_dense_layers": 2,
    "all_dropout": true,
    "batch_normalization_after_vgg": false,
    "batch_normalization_between_dense": false
}