_________________________________________________________________
Layer (type)                 Output Shape              Param #   
=================================================================
vgg19 (Model)                (None, 512)               20024384  
_________________________________________________________________
dense_1 (Dense)              (None, 512)               262656    
_________________________________________________________________
dense_2 (Dense)              (None, 512)               262656    
_________________________________________________________________
dense_3 (Dense)              (None, 1)                 513       
=================================================================
Total params: 20,550,209
Trainable params: 19,404,801
Non-trainable params: 1,145,408
_________________________________________________________________
