_________________________________________________________________
Layer (type)                 Output Shape              Param #   
=================================================================
vgg16 (Model)                (None, 512)               14714688  
_________________________________________________________________
dense_1 (Dense)              (None, 512)               262656    
_________________________________________________________________
dense_2 (Dense)              (None, 512)               262656    
_________________________________________________________________
dense_3 (Dense)              (None, 1)                 513       
=================================================================
Total params: 15,240,513
Trainable params: 14,095,105
Non-trainable params: 1,145,408
_________________________________________________________________
